{
    "version":                                             0,
    "execution": {
        "numCPUs":                                         1,
        "numRuns":                                         1
    },
    "settings": {
        "combination": {
            "exec_numMotes":                               [13]
        },
        "regular": {
            "exec_numSlotframesPerRun":                    600,
            "exec_randomSeed":                             1,

            "secjoin_enabled":                             true,

            "app":                                         "AppPeriodicFail",
            "app_pkPeriod":                                10,
            "app_pkPeriodVar":                             0.1,
            "app_pkLength":                                90,
            "app_burstTimestamp":                          300,
            "app_burstNumPackets":                         0,

            "app_sinOff":                                  2500,
            "app_sinAmp":                                  2000,
            "app_sinF":                                    0.0004,
            "app_sinPhase":                                1,

            "rpl_daoPeriod":                               60,
            "rpl_extensions":                              ["dis_unicast"],

            "fragmentation":                               "FragmentForwarding",
            "sixlowpan_reassembly_buffers_num":            1,
            "fragmentation_ff_discard_vrb_entry_policy":   [],
            "fragmentation_ff_vrb_table_size":             50,
            "tsch_max_payload_len":                        90,

            "sf_class":                                    "TREE",

            "tsch_slotDuration":                           0.010,
            "tsch_slotframeLength":                        101,
            "tsch_probBcast_ebProb":                       0.16,
            "tsch_clock_max_drift_ppm":                    30,
            "tsch_clock_frequency":                        32768,
            "tsch_keep_alive_interval":                    10,
            "tsch_tx_queue_size":                          10,


            "charge_log_period_s":                         10,

            "conn_class":                                  "Linear",
            "conn_trace":                                  null,

            "conn_random_square_side":                     2.000,
            "conn_random_init_min_pdr":                    0.5,
            "conn_random_init_min_neighbors":              3,

            "phy_numChans":                                16
        }
    },
    "logging":                                             "all",
    "log_directory_name":                                  "startTime",
    "post": [
        "python compute_kpis.py"
    ]
}
